{
	"name": "Edit Area",
	"description": "Javascript editor for source code. This editor is designed to edit souce code files in a textarea. The main goal is to allow text formatting, search and replace and real-time syntax highlight. More about Edit Area on: http://www.cdolivet.com/editarea/",
	"autor": "Master IV"
}
